<svg width="30" height="30" viewBox="0 0 30 30" fill="none" xmlns="http://www.w3.org/2000/svg">
<path d="M11.25 27.1875H4.6875C4.19037 27.187 3.71375 26.9893 3.36222 26.6378C3.0107 26.2863 2.813 25.8096 2.8125 25.3125V18.75C2.813 18.2529 3.0107 17.7762 3.36222 17.4247C3.71375 17.0732 4.19037 16.8755 4.6875 16.875H11.25C11.7471 16.8755 12.2238 17.0732 12.5753 17.4247C12.9268 17.7762 13.1245 18.2529 13.125 18.75V25.3125C13.1245 25.8096 12.9268 26.2863 12.5753 26.6378C12.2238 26.9893 11.7471 27.187 11.25 27.1875ZM4.6875 18.75V25.3125H11.25V18.75H4.6875Z" fill="black"/>
<path d="M25.3125 2.8125H4.6875C4.19022 2.8125 3.71331 3.01004 3.36167 3.36167C3.01004 3.71331 2.8125 4.19022 2.8125 4.6875V14.0625H4.6875V10.3125H14.0625V14.0625H15.9375V10.3125H25.3125V16.875H15.9375V18.75H25.3125V25.3125H15.9375V27.1875H25.3125C25.8098 27.1875 26.2867 26.99 26.6383 26.6383C26.99 26.2867 27.1875 25.8098 27.1875 25.3125V4.6875C27.1875 4.19022 26.99 3.71331 26.6383 3.36167C26.2867 3.01004 25.8098 2.8125 25.3125 2.8125ZM25.3125 8.4375H4.6875V4.6875H25.3125V8.4375Z" fill="black"/>
</svg>
